STAT 201: Intro. to Statistics and Data Science - Visualizations with ggplot
…
footprint_data <- read_csv("data/countries_footprint.csv")

Rows: 182 Columns: 15
── Column specification ────────────────────────────────────────────────────────
Delimiter: ","
chr  (3): Country, Region, Income_Group
dbl (11): SDGi, Life_Exectancy, HDI, GDP, Cropland, Grazing, Forest_Product,...
num  (1): Population

ℹ Use `spec()` to retrieve the full column specification for this data.
ℹ Specify the column types or set `show_col_types = FALSE` to quiet this message.

footprint_data

# A tibble: 182 × 15
   Country       Region  SDGi Life_Exectancy   HDI   GDP Income_Group Population
   <chr>         <chr>  <dbl>          <dbl> <dbl> <dbl> <chr>             <dbl>
 1 Afghanistan   Middl…  52.5             62  0.48    NA LI                 40.8
 2 Albania       Other…  71.6             76  0.8  14889 UM                  2.9
 3 Algeria       Africa  71.5             76  0.75 11137 UM                 45.4
 4 Angola        Africa  50.9             62  0.59  6304 LM                 35  
 5 Antigua and … Centr…  NA               78  0.79 18749 HI                  0.1
 6 Argentina     South…  72.8             75  0.84 22117 UM                 46  
 7 Armenia       Middl…  71.1             72  0.76 13548 LM                  3  
 8 Australia     Asia-…  75.6             83  0.95 53053 HI                 26.1
 9 Austria       EU-27   82.3             81  0.92 55460 HI                  9.1
10 Azerbaijan    Middl…  73.5             69  0.75 14692 UM                 10.3
# ℹ 172 more rows
# ℹ 7 more variables: Cropland <dbl>, Grazing <dbl>, Forest_Product <dbl>,
#   Carbon <dbl>, Fish <dbl>, Built_up_land <dbl>, Total <dbl>
…
