STAT 201: Intro. to Statistics and Data Science - Data wrangling with dplyr (cont.)
…
It’s always important to ungroup() after using group_by()! Otherwise, the grouping with carry on and could lead to potential errors in your future wrangling! Notice the differences in the outputs in the following examples:

datascience |>
  group_by(Major) |>
  mutate(mean_age = mean(Age))|>
  mutate(mean_comp = mean(CompensationAmount)) |>
  ungroup() |>
  select(Major, mean_age, mean_comp) |>
  arrange(Major)

# A tibble: 102 × 3
   Major                   mean_age mean_comp
   <chr>                      <dbl>     <dbl>
 1 A humanities discipline     60      55000 
 2 A social science            34      50000 
 3 Biology                     28.3    18550 
 4 Biology                     28.3    18550 
 5 Biology                     28.3    18550 
 6 Computer Science            28.4  1130131.
 7 Computer Science            28.4  1130131.
 8 Computer Science            28.4  1130131.
 9 Computer Science            28.4  1130131.
10 Computer Science            28.4  1130131.
# ℹ 92 more rows

datascience |>
  group_by(Major) |>
  mutate(mean_age = mean(Age)) |>
  ungroup() |>
  mutate(mean_comp = mean(CompensationAmount)) |>
  select(Major, mean_age, mean_comp) |>
  arrange(Major)

# A tibble: 102 × 3
   Major                   mean_age mean_comp
   <chr>                      <dbl>     <dbl>
 1 A humanities discipline     60     604512.
 2 A social science            34     604512.
 3 Biology                     28.3   604512.
 4 Biology                     28.3   604512.
 5 Biology                     28.3   604512.
 6 Computer Science            28.4   604512.
 7 Computer Science            28.4   604512.
 8 Computer Science            28.4   604512.
 9 Computer Science            28.4   604512.
10 Computer Science            28.4   604512.
# ℹ 92 more rows
…
