STAT 201: Intro. to Statistics and Data Science - Data wrangling with dplyr
…
By default, all dplyr functions expect the first argument to be a data frame.

Selecting columns

Sometimes, there are a lot of columns in a data frame and we might not want all of them. The select() function gives us an easy way to choose which columns/variables we’d like to work with.

The select() function requires by default two arguments: the data frame and the variable names to choose from that data frame.

The following code works…

select(datascience, Age)

# A tibble: 2,288 × 1
     Age
   <dbl>
 1    56
 2    33
 3    26
 4    25
 5    33
 6    22
 7    29
 8    35
 9    37
10    31
# ℹ 2,278 more rows

…but it’s preferable to take advantage of piping in order to make code more readable:

datascience |>
  select(Age)

# A tibble: 2,288 × 1
     Age
   <dbl>
 1    56
 2    33
 3    26
 4    25
 5    33
 6    22
 7    29
 8    35
 9    37
10    31
# ℹ 2,278 more rows
…
The result is a data frame with 2288 rows and 1 column with the Age variable

Check

Why do we type Age and not age?

Multiple variables and excluding

Expand

datascience |>
  select(Age, Major)

# A tibble: 2,288 × 2
     Age Major                                                       
   <dbl> <chr>                                                       
 1    56 Mathematics or statistics                                   
 2    33 Other                                                       
 3    26 Computer Science                                            
 4    25 Physics                                                     
 5    33 Electrical Engineering                                      
 6    22 Information technology, networking, or system administration
 7    29 Computer Science                                            
 8    35 Physics                                                     
 9    37 Electrical Engineering                                      
10    31 Computer Science                                            
# ℹ 2,278 more rows

Check

What happens if we swap the order of the variable names?

A range of variables

datascience |>
  select(Gender:EmploymentStatus)

# A tibble: 2,288 × 3
   Gender   Age EmploymentStatus                                    
   <chr>  <dbl> <chr>                                               
 1 Male      56 Independent contractor, freelancer, or self-employed
 2 Male      33 Employed full-time                                  
 3 Male      26 Employed full-time                                  
 4 Male      25 Employed part-time                                  
 5 Male      33 Employed full-time                                  
 6 Male      22 Employed full-time                                  
 7 Male      29 Employed full-time                                  
 8 Male      35 Employed full-time                                  
 9 Male      37 Employed full-time                                  
10 Male      31 Employed part-time                                  
# ℹ 2,278 more rows

Excluding variables

datascience |>
  select(-Country)

# A tibble: 2,288 × 16
   Gender   Age EmploymentStatus          EmployerIndustry FormalEducation Major
   <chr>  <dbl> <chr>                     <chr>            <chr>           <chr>
 1 Male      56 Independent contractor, … Mix of fields    Master's degree Math…
 2 Male      33 Employed full-time        Internet-based   Bachelor's deg… Other
 3 Male      26 Employed full-time        Financial        Master's degree Comp…
 4 Male      25 Employed part-time        Academic         Bachelor's deg… Phys…
 5 Male      33 Employed full-time        Telecommunicati… Doctoral degree Elec…
 6 Male      22 Employed full-time        Mix of fields    Bachelor's deg… Info…
 7 Male      29 Employed full-time        Pharmaceutical   Master's degree Comp…
 8 Male      35 Employed full-time        Technology       Doctoral degree Phys…
 9 Male      37 Employed full-time        Technology       Master's degree Elec…
10 Male      31 Employed part-time        Technology       Doctoral degree Comp…
# ℹ 2,278 more rows
# ℹ 10 more variables: CompensationAmount <dbl>, CompensationCurrency <chr>,
#   CurrentJobTitle <chr>, TitleFit <chr>, LanguageRecommendation <chr>,
#   DataScienceIdentity <chr>, WorkDataVisualizations <chr>,
#   JobSatisfaction <chr>, JobSatisfaction2 <dbl>, ConversionUSD <dbl>

Arranging rows

We might want to re-arrange rows in ascending or descending order according to a certain variable:

datascience |>
  select(Age, Major) |>
  arrange(Age)

# A tibble: 2,288 × 2
     Age Major                                                       
   <dbl> <chr>                                                       
 1     0 Mathematics or statistics                                   
 2     1 Other                                                       
 3    19 Computer Science                                            
 4    19 Biology                                                     
 5    20 Information technology, networking, or system administration
 6    20 Mathematics or statistics                                   
 7    20 Computer Science                                            
 8    20 Mathematics or statistics                                   
 9    21 Other                                                       
10    21 Computer Science                                            
# ℹ 2,278 more rows
…
Check

What is the difference between select() and slice()?

Filtering to select a subset of rows

The slice() function is nice, but unless the rows of your data frame are ordered meaningfully, its actual utility is limited. We might want to look at a set of the cases in which a certain condition is met.

In the following code, we only retain the observations where the person’s Major was Computer Science:

datascience |>
  filter(Major == "Computer Science")

# A tibble: 681 × 17
   Country  Gender   Age EmploymentStatus EmployerIndustry FormalEducation Major
   <chr>    <chr>  <dbl> <chr>            <chr>            <chr>           <chr>
 1 Taiwan   Male      26 Employed full-t… Financial        Master's degree Comp…
 2 Poland   Male      29 Employed full-t… Pharmaceutical   Master's degree Comp…
 3 Iran     Male      31 Employed part-t… Technology       Doctoral degree Comp…
 4 Brazil   Male      25 Employed full-t… Academic         Master's degree Comp…
 5 Brazil   Male      32 Employed full-t… Academic         Master's degree Comp…
 6 Russia   Male      31 Independent con… CRM/Marketing    Some college/u… Comp…
 7 India    Male      23 Employed full-t… Technology       Master's degree Comp…
 8 Canada   Male      52 Employed full-t… Academic         Bachelor's deg… Comp…
 9 Russia   Male      26 Independent con… Military/Securi… Bachelor's deg… Comp…
10 Czech R… Male      25 Independent con… Internet-based   Master's degree Comp…
# ℹ 671 more rows
# ℹ 10 more variables: CompensationAmount <dbl>, CompensationCurrency <chr>,
#   CurrentJobTitle <chr>, TitleFit <chr>, LanguageRecommendation <chr>,
#   DataScienceIdentity <chr>, WorkDataVisualizations <chr>,
#   JobSatisfaction <chr>, JobSatisfaction2 <dbl>, ConversionUSD <dbl>

Multiple conditions

Expand

We can also filter for more than one condition at once. Within filter(), the comma , specifies that all conditions must be true. It can be read as “and”:

datascience |>
  filter(Major == "Computer Science", 
         Age == 30) |>
  select(Major, Age)

# A tibble: 36 × 2
   Major              Age
   <chr>            <dbl>
 1 Computer Science    30
 2 Computer Science    30
 3 Computer Science    30
 4 Computer Science    30
 5 Computer Science    30
 6 Computer Science    30
 7 Computer Science    30
 8 Computer Science    30
 9 Computer Science    30
10 Computer Science    30
# ℹ 26 more rows

If we just need at least one of multiple conditions to be true, we can use the | operator which stands for “or”:

datascience |>
  filter(Major == "Computer Science" | 
         Age == 30) |>
  select(Major, Age)

# A tibble: 765 × 2
   Major              Age
   <chr>            <dbl>
 1 Computer Science    26
 2 Computer Science    29
 3 Computer Science    31
 4 Computer Science    25
 5 Computer Science    32
 6 Computer Science    31
 7 A social science    30
 8 Computer Science    23
 9 Biology             30
10 Computer Science    52
# ℹ 755 more rows

datascience |>
  filter(Major == "Computer Science" | Major == "Other",
         Age == 30) |>
  select(Major, Age)

# A tibble: 44 × 2
   Major              Age
   <chr>            <dbl>
 1 Computer Science    30
 2 Computer Science    30
 3 Computer Science    30
 4 Computer Science    30
 5 Computer Science    30
 6 Computer Science    30
 7 Computer Science    30
 8 Computer Science    30
 9 Other               30
10 Computer Science    30
# ℹ 34 more rows
…
# A tibble: 5 × 1
  FormalEducation                                                  
  <chr>                                                            
1 Master's degree                                                  
2 Bachelor's degree                                                
3 Doctoral degree                                                  
4 Some college/university study without earning a bachelor's degree
5 I prefer not to answer                                           

datascience |>
  distinct(FormalEducation, Major) |>
  arrange(FormalEducation)

# A tibble: 58 × 2
   FormalEducation   Major                                                      
   <chr>             <chr>                                                      
 1 Bachelor's degree Other                                                      
 2 Bachelor's degree Physics                                                    
 3 Bachelor's degree Information technology, networking, or system administrati…
 4 Bachelor's degree A social science                                           
 5 Bachelor's degree Electrical Engineering                                     
 6 Bachelor's degree Mathematics or statistics                                  
 7 Bachelor's degree Computer Science                                           
 8 Bachelor's degree Engineering (non-computer focused)                         
 9 Bachelor's degree A humanities discipline                                    
10 Bachelor's degree Management information systems                             
# ℹ 48 more rows

Check

What variables are by default included in the output from distinct()?

Mutate to add a new variable

It is typical for us to want to add variables to a given data frame. We do this with the mutate() function. We must specify the name of the new variable and how to calculate the value of that variable for each observation:

datascience %>%
  mutate(compensation_1k = CompensationAmount/1000) |>
  select(CompensationAmount, compensation_1k)

# A tibble: 2,288 × 2
   CompensationAmount compensation_1k
                <dbl>           <dbl>
 1             250000             250
 2            1200000            1200
 3            1100000            1100
 4              20000              20
 5             100000             100
 6             624000             624
 7             126000             126
 8             133000             133
 9              80000              80
10              15000              15
# ℹ 2,278 more rows
…
